%YAML 1.1
%TAG !u! tag:unity3d.com,2011:
--- !u!1 &1488338969414166310
GameObject:
  m_ObjectHideFlags: 0
  m_CorrespondingSourceObject: {fileID: 0}
  m_PrefabInstance: {fileID: 0}
  m_PrefabAsset: {fileID: 0}
  serializedVersion: 6
  m_Component:
  - component: {fileID: 7521558037408359974}
  - component: {fileID: 332795154124024143}
  m_Layer: 0
  m_Name: Sound_Victory
  m_TagString: Untagged
  m_Icon: {fileID: 0}
  m_NavMeshLayer: 0
  m_StaticEditorFlags: 0
  m_IsActive: 1
--- !u!4 &7521558037408359974
Transform:
  m_ObjectHideFlags: 0
  m_CorrespondingSourceObject: {fileID: 0}
  m_PrefabInstance: {fileID: 0}
  m_PrefabAsset: {fileID: 0}
  m_GameObject: {fileID: 1488338969414166310}
  m_LocalRotation: {x: 0, y: 0, z: 0, w: 1}
  m_LocalPosition: {x: -7.1021857, y: -0.14594021, z: -0.36542773}
  m_LocalScale: {x: 1, y: 1, z: 1}
  m_Children: []
  m_Father: {fileID: 0}
  m_RootOrder: 0
  m_LocalEulerAnglesHint: {x: 0, y: 0, z: 0}
--- !u!114 &332795154124024143
MonoBehaviour:
  m_ObjectHideFlags: 0
  m_CorrespondingSourceObject: {fileID: 0}
  m_PrefabInstance: {fileID: 0}
  m_PrefabAsset: {fileID: 0}
  m_GameObject: {fileID: 1488338969414166310}
  m_Enabled: 1
  m_EditorHideFlags: 0
  m_Script: {fileID: 11500000, guid: 960fdfbc151e60e4bbb2ba088b30c9fe, type: 3}
  m_Name: 
  m_EditorClassIdentifier: 
  soundId: 2
  clip: {fileID: 8300000, guid: d83dd1f6b89621e45a55a28e43723812, type: 3}
  source: {fileID: 0}
  volume: 0.5
  pitch: 1
  randomPitchMin: 1.2
  randomPitchMax: 1.4
